{
    "target" : "SkMake.bin",
    "platform" : "X86_64",
    "compiler" : "/usr/bin/g++",
    "buildPath" : "./build",
    "debugger" : "/usr/bin/gdb",
    "buildOptions" : ["-pipe", "-g", "-std=gnu++11", "-W", "-fPIC"],
    "sourcesPaths" : ["../SpecialK/LibSkFlat", "../SpecialK/LibSkCore","../SpecialK/LibSkScript"],
    "includeOptPaths" : ["-I/opt/homebrew/include"],
    "dynamicDeps" : [ ],
    "defines" : ["-DENABLE_SKAPP", "-DSPECIALK_APPLICATION", "-DENABLE_AES"],
    "libs" : ["-L/opt/homebrew/lib", "-lm", "-lz", "-lcrypto","-pthread"],

    "fsToH" : [
        {
            "root" : "./templates",
            "binary" : false,
            "arrayName" : "templates",
            "out" : "./templates.h"
        }
    ]
}
