{
    "target" : "SkMake-static.bin",
    "platform" : "X86_64",
    "compiler" : "/usr/bin/g++",
    "buildPath" : "./build",
    "debugger" : "/usr/bin/gdb",
    "buildOptions" : ["-pipe", "-g", "-std=gnu++11", "-W", "-fPIC"],
    "sourcesPaths" : ["../SpecialK/LibSkFlat", "../SpecialK/LibSkCore","../SpecialK/LibSkScript"],
    "includeOptPaths" : [ ],
    "dynamicDeps" : [ ],
    "defines" : ["-DENABLE_SKAPP", "-DSPECIALK_APPLICATION", "-DENABLE_AES"],

    "libs" : [
                "-static",
                "-static-libstdc++",
                "-pthread",
                "-L./",
                "-L/usr/lib",
                "/usr/lib/libcrypto.a",
                "/usr/lib/libz.a",
                "/usr/lib/libdl.a"
    ],

    "fsToH" : [
        {
            "root" : "./templates",
            "binary" : false,
            "arrayName" : "templates",
            "out" : "./templates.h"
        }
    ]
}
