{
    "adcModes" : {
        "8 bit" : "8",
        "10 bit" : "10",
        "12 bit" : "12"
    },

    "dacModes" : {
        "8 bit" : "8",
        "10 bit" : "10"
    },

    "analogRefModes" : [
        "AR_DEFAULT",
        "AR_INTERNAL1V0",
        "AR_INTERNAL1V65",
        "AR_INTERNAL2V23",
        "AR_EXTERNAL"
    ],
    "arch": "SAMD",
    "board": "arduino:samd:mkr1000",
    "eeprom": 0,
    "gpio": [
        {
            "pinBoard": "0",
            "pinName": "D0",
            "types": [
                1,
                4,
                5
            ]
        },
        {
            "pinBoard": "1",
            "pinName": "D1",
            "types": [
                1,
                4,
                5
            ]
        },
        {
            "pinBoard": "2",
            "pinName": "D2",
            "types": [
                1,
                4
            ]
        },
        {
            "pinBoard": "3",
            "pinName": "D3",
            "types": [
                1,
                4
            ]
        },
        {
            "pinBoard": "4",
            "pinName": "D4",
            "types": [
                1,
                4,
                5
            ]
        },
        {
            "pinBoard": "5",
            "pinName": "D5",
            "types": [
                1,
                4,
                5
            ]
        },
        {
            "pinBoard": "6",
            "pinName": "D6",
            "types": [
                1,
                4,
                5
            ]
        },
        {
            "pinBoard": "7",
            "pinName": "D7",
            "types": [
                1,
                4,
                5
            ]
        },
        {
            "pinBoard": "8",
            "pinName": "D8",
            "types": [
                1,
                4,
                5
            ]
        },
        {
            "pinBoard": "9",
            "pinName": "D9",
            "types": [
                1
            ]
        },
        {
            "pinBoard": "10",
            "pinName": "D10",
            "types": [
                1,
                4
            ]
        },
        {
            "pinBoard": "11",
            "pinName": "D11",
            "types": [
                1
            ]
        },
        {
            "pinBoard": "12",
            "pinName": "D12",
            "types": [
                1
            ]
        },
        {
            "pinBoard": "13",
            "pinName": "RX",
            "types": [
                1
            ]
        },
        {
            "pinBoard": "14",
            "pinName": "TX",
            "types": [
                1
            ]
        },
        {
            "pinBoard": "A0",
            "pinName": "A0/DAC",
            "types": [
                1,
                2,
                3
            ]
        },
        {
            "pinBoard": "A1",
            "pinName": "A1",
            "types": [
                1,
                2,
                5
            ]
        },
        {
            "pinBoard": "A2",
            "pinName": "A2",
            "types": [
                1,
                2,
                5
            ]
        },
        {
            "pinBoard": "A3",
            "pinName": "A3",
            "types": [
                1,
                2,
                4
            ]
        },
        {
            "pinBoard": "A4",
            "pinName": "A4",
            "types": [
                1,
                2,
                4
            ]
        },
        {
            "pinBoard": "A5",
            "pinName": "A5",
            "types": [
                1,
                2
            ]
        },
        {
            "pinBoard": "A6",
            "pinName": "A6",
            "types": [
                1,
                2
            ]
        }
    ],
    "label": "ARDUINO MKR 1000",
    "ram": 32768,
    "serials": [
        "Serial",
        "Serial1"
    ]
}
