{
    "analogRefModes" : [
        "DEFAULT",
        "EXTERNAL"
    ],
    "arch": "AVRH",
    "board": "arduino:avr:leonardo",
    "eeprom": 1024,
    "gpio": [
        {
            "pinBoard": "0",
            "pinName": "TX",
            "types": [
                1,
                5
            ]
        },
        {
            "pinBoard": "1",
            "pinName": "RX",
            "types": [
                1,
                5
            ]
        },
        {
            "pinBoard": "2",
            "pinName": "D2",
            "types": [
                1,
                5
            ]
        },
        {
            "pinBoard": "3",
            "pinName": "D3",
            "types": [
                1,
                5
            ]
        },
        {
            "pinBoard": "5",
            "pinName": "D5",
            "types": [
                1,
                4
            ]
        },
        {
            "pinBoard": "7",
            "pinName": "D7",
            "types": [
                1,
                5
            ]
        },
        {
            "pinBoard": "11",
            "pinName": "D11",
            "types": [
                1,
                4
            ]
        },
        {
            "pinBoard": "13",
            "pinName": "D13",
            "types": [
                1,
                4
            ]
        },
        {
            "pinBoard": "A0",
            "pinName": "A0",
            "types": [
                1,
                2
            ]
        },
        {
            "pinBoard": "A1",
            "pinName": "A1",
            "types": [
                1,
                2
            ]
        },
        {
            "pinBoard": "A2",
            "pinName": "A2",
            "types": [
                1,
                2
            ]
        },
        {
            "pinBoard": "A3",
            "pinName": "A3",
            "types": [
                1,
                2
            ]
        },
        {
            "pinBoard": "A4",
            "pinName": "A4",
            "types": [
                1,
                2
            ]
        },
        {
            "pinBoard": "A5",
            "pinName": "A5",
            "types": [
                1,
                2
            ]
        },
        {
            "pinBoard": "A6",
            "pinName": "A6",
            "types": [
                1,
                2
            ]
        },
        {
            "pinBoard": "A7",
            "pinName": "A7",
            "types": [
                1,
                2,
                4
            ]
        },
        {
            "pinBoard": "A8",
            "pinName": "A8",
            "types": [
                1,
                2
            ]
        },
        {
            "pinBoard": "A9",
            "pinName": "A9",
            "types": [
                1,
                2,
                4
            ]
        },
        {
            "pinBoard": "A10",
            "pinName": "A10",
            "types": [
                1,
                2,
                4
            ]
        },
        {
            "pinBoard": "A11",
            "pinName": "A11",
            "types": [
                1,
                2
            ]
        }
    ],
    "label": "ARDUINO-LEONARDO",
    "ram": 2560,
    "serials": [
        "Serial",
        "Serial1"
    ]
}
