{
    "analogRefModes" : [
        "DEFAULT",
        "INTERNAL1V1",
        "INTERNAL2V56",
        "EXTERNAL"
    ],
    "arch": "AVRH",
    "board": "arduino:avr:mega:cpu=atmega2560",
    "eeprom": 4096,
    "gpio": [
        {
            "pinBoard": "0",
            "pinName": "TX",
            "types": [
                1
            ]
        },
        {
            "pinBoard": "1",
            "pinName": "RX",
            "types": [
                1
            ]
        },
        {
            "pinBoard": "2",
            "pinName": "D2",
            "types": [
                1,
                4,
                5
            ]
        },
        {
            "pinBoard": "3",
            "pinName": "D3",
            "types": [
                1,
                4,
                5
            ]
        },
        {
            "pinBoard": "4",
            "pinName": "D4",
            "types": [
                1,
                4
            ]
        },
        {
            "pinBoard": "5",
            "pinName": "D5",
            "types": [
                1,
                4
            ]
        },
        {
            "pinBoard": "6",
            "pinName": "D6",
            "types": [
                1,
                4
            ]
        },
        {
            "pinBoard": "7",
            "pinName": "D7",
            "types": [
                1,
                4
            ]
        },
        {
            "pinBoard": "8",
            "pinName": "D8",
            "types": [
                1,
                4
            ]
        },
        {
            "pinBoard": "9",
            "pinName": "D9",
            "types": [
                1,
                4
            ]
        },
        {
            "pinBoard": "10",
            "pinName": "D10",
            "types": [
                1,
                4
            ]
        },
        {
            "pinBoard": "11",
            "pinName": "D11",
            "types": [
                1,
                4
            ]
        },
        {
            "pinBoard": "12",
            "pinName": "D12",
            "types": [
                1,
                4
            ]
        },
        {
            "pinBoard": "13",
            "pinName": "D13",
            "types": [
                1,
                4
            ]
        },
        {
            "pinBoard": "14",
            "pinName": "TX3",
            "types": [
                1
            ]
        },
        {
            "pinBoard": "15",
            "pinName": "RX3",
            "types": [
                1
            ]
        },
        {
            "pinBoard": "16",
            "pinName": "TX2",
            "types": [
                1
            ]
        },
        {
            "pinBoard": "17",
            "pinName": "RX2",
            "types": [
                1
            ]
        },
        {
            "pinBoard": "18",
            "pinName": "TX1",
            "types": [
                1,
                5
            ]
        },
        {
            "pinBoard": "19",
            "pinName": "RX1",
            "types": [
                1,
                5
            ]
        },
        {
            "pinBoard": "20",
            "pinName": "SDA",
            "types": [
                1,
                5
            ]
        },
        {
            "pinBoard": "21",
            "pinName": "SCL",
            "types": [
                1,
                5
            ]
        },
        {
            "pinBoard": "22",
            "pinName": "D22",
            "types": [
                1
            ]
        },
        {
            "pinBoard": "23",
            "pinName": "D23",
            "types": [
                1
            ]
        },
        {
            "pinBoard": "24",
            "pinName": "D24",
            "types": [
                1
            ]
        },
        {
            "pinBoard": "25",
            "pinName": "D25",
            "types": [
                1
            ]
        },
        {
            "pinBoard": "26",
            "pinName": "D26",
            "types": [
                1
            ]
        },
        {
            "pinBoard": "27",
            "pinName": "D27",
            "types": [
                1
            ]
        },
        {
            "pinBoard": "28",
            "pinName": "D28",
            "types": [
                1
            ]
        },
        {
            "pinBoard": "29",
            "pinName": "D29",
            "types": [
                1
            ]
        },
        {
            "pinBoard": "30",
            "pinName": "D30",
            "types": [
                1
            ]
        },
        {
            "pinBoard": "31",
            "pinName": "D31",
            "types": [
                1
            ]
        },
        {
            "pinBoard": "32",
            "pinName": "D32",
            "types": [
                1
            ]
        },
        {
            "pinBoard": "33",
            "pinName": "D33",
            "types": [
                1
            ]
        },
        {
            "pinBoard": "34",
            "pinName": "D34",
            "types": [
                1
            ]
        },
        {
            "pinBoard": "35",
            "pinName": "D35",
            "types": [
                1
            ]
        },
        {
            "pinBoard": "36",
            "pinName": "D36",
            "types": [
                1
            ]
        },
        {
            "pinBoard": "37",
            "pinName": "D37",
            "types": [
                1
            ]
        },
        {
            "pinBoard": "38",
            "pinName": "D38",
            "types": [
                1
            ]
        },
        {
            "pinBoard": "A0",
            "pinName": "A0",
            "types": [
                1,
                2
            ]
        },
        {
            "pinBoard": "A1",
            "pinName": "A1",
            "types": [
                1,
                2
            ]
        },
        {
            "pinBoard": "A2",
            "pinName": "A2",
            "types": [
                1,
                2
            ]
        },
        {
            "pinBoard": "A3",
            "pinName": "A3",
            "types": [
                1,
                2
            ]
        },
        {
            "pinBoard": "A4",
            "pinName": "A4",
            "types": [
                1,
                2
            ]
        },
        {
            "pinBoard": "A5",
            "pinName": "A5",
            "types": [
                1,
                2
            ]
        },
        {
            "pinBoard": "A6",
            "pinName": "A6",
            "types": [
                1,
                2
            ]
        },
        {
            "pinBoard": "A7",
            "pinName": "A7",
            "types": [
                1,
                2
            ]
        },
        {
            "pinBoard": "A8",
            "pinName": "A8",
            "types": [
                1,
                2
            ]
        },
        {
            "pinBoard": "A9",
            "pinName": "A9",
            "types": [
                1,
                2
            ]
        },
        {
            "pinBoard": "A10",
            "pinName": "A10",
            "types": [
                1,
                2
            ]
        },
        {
            "pinBoard": "A11",
            "pinName": "A11",
            "types": [
                1,
                2
            ]
        },
        {
            "pinBoard": "A12",
            "pinName": "A12",
            "types": [
                1,
                2
            ]
        },
        {
            "pinBoard": "A13",
            "pinName": "A13",
            "types": [
                1,
                2
            ]
        },
        {
            "pinBoard": "A14",
            "pinName": "A14",
            "types": [
                1,
                2
            ]
        },
        {
            "pinBoard": "A15",
            "pinName": "A15",
            "types": [
                1,
                2
            ]
        }
    ],
    "label": "ARDUINO-MEGA",
    "ram": 8192,
    "serials": [
        "Serial",
        "Serial1",
        "Serial2",
        "Serial3"
    ]
}
