{
    "analogRefModes" : [
        "DEFAULT",
        "INTERNAL",
        "EXTERNAL"
    ],
    "arch": "AVR",
    "board": "arduino:avr:uno",
    "eeprom": 1024,
    "gpio": [
        {
            "pinBoard": "0",
            "pinName": "RX",
            "types": [
                1
            ]
        },
        {
            "pinBoard": "1",
            "pinName": "TX",
            "types": [
                1
            ]
        },
        {
            "pinBoard": "2",
            "pinName": "D2",
            "types": [
                1,
                5
            ]
        },
        {
            "pinBoard": "3",
            "pinName": "D3",
            "types": [
                1,
                4,
                5
            ]
        },
        {
            "pinBoard": "4",
            "pinName": "D4",
            "types": [
                1
            ]
        },
        {
            "pinBoard": "5",
            "pinName": "D5",
            "types": [
                1,
                4
            ]
        },
        {
            "pinBoard": "6",
            "pinName": "D6",
            "types": [
                1,
                4
            ]
        },
        {
            "pinBoard": "7",
            "pinName": "D7",
            "types": [
                1
            ]
        },
        {
            "pinBoard": "8",
            "pinName": "D8",
            "types": [
                1
            ]
        },
        {
            "pinBoard": "9",
            "pinName": "D9",
            "types": [
                1,
                4
            ]
        },
        {
            "pinBoard": "10",
            "pinName": "D10",
            "types": [
                1,
                4
            ]
        },
        {
            "pinBoard": "11",
            "pinName": "D11",
            "types": [
                1,
                4
            ]
        },
        {
            "pinBoard": "12",
            "pinName": "D12",
            "types": [
                1
            ]
        },
        {
            "pinBoard": "13",
            "pinName": "D13",
            "types": [
                1
            ]
        },
        {
            "pinBoard": "A0",
            "pinName": "A0",
            "types": [
                1,
                2
            ]
        },
        {
            "pinBoard": "A1",
            "pinName": "A1",
            "types": [
                1,
                2
            ]
        },
        {
            "pinBoard": "A2",
            "pinName": "A2",
            "types": [
                1,
                2
            ]
        },
        {
            "pinBoard": "A3",
            "pinName": "A3",
            "types": [
                1,
                2
            ]
        },
        {
            "pinBoard": "A4",
            "pinName": "A4",
            "types": [
                1,
                2
            ]
        },
        {
            "pinBoard": "A5",
            "pinName": "A5",
            "types": [
                1,
                2
            ]
        }
    ],
    "label": "ARDUINO-UNO",
    "ram": 2048,
    "serials": [
        "Serial"
    ]
}
