{
    "name" : "SAMD-RTC",
    "desc" : "SAMD internal RTC support",

    "type" : "RTC-ADDON",

    "uses" : [
        "RTC"
    ],

    "architectures" : [
        "SAMD"
    ],

    "localDefines" : {
    },

    "includes" : [
        "RTCZero.h",
        "datetime.h"
    ],

    "globals" : [
        "RTCZero rtc",
        "byte rtc_SubID = 0",
        "DateTime dateTime",
        "volatile bool isRtcAlarmed = false",
        "unsigned long unixTime = 0"
    ],

    "functions" : [
        {
            "header" : "void initRTC()",
            "file" : "initRTC.cpp"
        },

        {
            "header" : "void checkRTC()",
            "file" : "checkRTC.cpp"
        },

        {
            "header" : "void rtcInterruption()",
            "file" : "rtcInterruption.cpp"
        }
    ],

    "sketchCalls" : {
        "setup" : "initRTC()",
        "loop" : "checkRTC()"
    },

    "requires" : [
        {
            "label" : "Rtc alarm mode",
            "type" : "OPTIONS",
            "defName" : "RTCALARM_MODE",
            "default" : "0",

            "options" : [
                {
                    "label" : "on minutes",
                    "value" : "0"
                },

                {
                    "label" : "on hour",
                    "value" : "1"
                },

                {
                    "label" : "on day",
                    "value" : "2"
                },

                {
                    "label" : "on month",
                    "value" : "3"
                },

                {
                    "label" : "on year",
                    "value" : "4"
                }
            ]
        },

        {
            "label" : "Spurious pulse on seconds",
            "defName" : "RTC_SECONDS_PULSE_ENABLED",
            "type" : "bool",
            "default" : true,
            "canBeUndefined" : true,

            "conditions" : {
                "true" : {
                    "globals" : [
                        "byte rtcPulse_SubID = 0",
                        "ElapsedTimeMillis rtcSecondsPulseTimer"
                    ],

                    "satFlows" : [
                        {
                            "NAME" : "RTCSECONDS",
                            "FLOW_T" : "CUSTOMPULSE",
                            "CUSTOM_T" : "TIMESECOND_PULSE",
                            "MODE_T" : "INPUT"
                        }
                    ]
                }
            }
        },

        {
            "label" : "Setup date-time by NTP service",
            "defName" : "RTCNTP_ENABLED",
            "type" : "bool",
            "default" : true,
            "canBeUndefined" : true,

            "conditions" : {
                "true" : {
                    "localDefines" : {
                        "NTPLOCPORT" : "2390"
                    },

                    "includes" : [
                        "ntprequest.h"
                    ],

                    "globals" : [
                        "IPAddress ntpSvrIP( NTPSVRIP )"
                    ],

                    "requires" : [
                        {
                            "label" : "NTP-Server IP",
                            "defName" : "NTPSVRIP",
                            "type" : "ipv4Address",
                            "default" : "212, 45, 144, 206"
                        },

                        {
                            "label" : "NTP-Server port",
                            "type" : "uint16_t",
                            "defName" : "NTPSVRPORT",
                            "default" : 123
                        }
                    ]
                }
            }
        }
    ],

    "satFlows" : [
        {
            "NAME" : "RTC_$ADDON_NAME",
            "FLOW_T" : "CUSTOMINT64",
            "CUSTOM_T" : "DATETIME",
            "MODE_T" : "INPUT"
        }
    ]
}
