{
    "name" : "ETH-W5x00",
    "desc" : "Ethernet chips WIZNET W5100 / W5200 / W5500, placed on Arduino-Ethernet-Shields",

    "type" : "NETWORK-CORE",

    "architectures" : [
        "AVR",
        "AVRH",
        "SAMD",
        "SAM",
        "ESP8266"
    ],

    "globalDefines" : {
        "MCU_HASETH" : "",
        "UDPSOCK_CLASS" : "EthernetUDP"
    },

    "localDefines" : {
        "STREAM" : "client"
    },

    "includes" : [
        "Ethernet.h"
    ],

    "globals" : [
        "EthernetClient client",
        "uint8_t macAddr[] = { MACADDR }",
        "IPAddress svrIP( SVRIP )",
        "bool isStreamActive = false",
        "ElapsedTimeMillis streamCheckTimer",
        "uint16_t svrPort = SVRPORT",
        "unsigned long int tries = 0",
        "bool disconnectionNotyfied = false"
    ],

    "functions" : [
        {
            "header" : "void initEthernet()",
            "file" : "initEthernet.cpp"
        },
        {
            "header" : "void checkEthernet()",
            "file" : "checkEthernet.cpp"
        }
    ],

    "sketchCalls" : {
        "setup" : "initEthernet()",
        "loop" : "checkEthernet()"
    },

    "requires" : [
        {
            "label" : "MAC Address",
            "defName" : "MACADDR",
            "type" : "macAddress"
        },

        {
            "label" : "Server IP",
            "defName" : "SVRIP",
            "type" : "ipv4Address"
        },

        {
            "label" : "Server port",
            "type" : "uint16_t",
            "defName" : "SVRPORT",
            "default" : 9999
        },

        {
            "label" : "Enable DHCP",
            "defName" : "DHCP_ENABLED",
            "type" : "bool",
            "default" : true,
            "canBeUndefined" : true,

            "conditions" : {
                "true" : {
                    "globals" : [
                        "ElapsedTimeMillis dhcpMaintainerTimer"
                    ],

                    "functions" : [
                        {
                            "header" : "void initDhcp()",
                            "file" : "initDhcp.cpp"
                        }
                    ],
                    "requires" : [
                        {
                            "label" : "DHCP maintainig-interval",
                            "type" : "uint32_t",
                            "defName" : "ETH_DHCPCHECKMS",
                            "default" : 1000,
                            "udm" : "ms"
                        }
                    ]
                },

                "false" : {
                    "globals" : [
                        "IPAddress *ipAddr = NULL",
                        "IPAddress *netmask = NULL",
                        "IPAddress *gwAddr = NULL",
                        "IPAddress *dnsAddr = NULL"
                    ],

                    "functions" : [
                        {
                            "header" : "void initAddress()",
                            "file" : "initAddress.cpp"
                        }
                    ],

                    "requires" : [
                        {
                            "label" : "Address",
                            "defName" : "IPADDR",
                            "type" : "ipv4Address"
                        },
                        {
                            "label" : "Netmask",
                            "defName" : "NETMASK",
                            "type" : "ipv4Address",
                            "canBeUndefined" : true
                        },
                        {
                            "label" : "Gateway",
                            "defName" : "GWADDR",
                            "type" : "ipv4Address",
                            "canBeUndefined" : true
                        },
                        {
                            "label" : "DNS",
                            "defName" : "DNSADDR",
                            "type" : "ipv4Address",
                            "canBeUndefined" : true
                        }
                    ]
                }
            }
        },

        {
            "label" : "Check interval",
            "type" : "uint32_t",
            "defName" : "STREAM_CHECKMS",
            "default" : 2000,
            "udm" : "ms"
        }
    ]
}
