{
    "name" : "BUFFER",
    "desc" : "GPIO for a single pin bufferized",

    "type" : "GPIO-ADDON",

    "uses" : [
        "GPIO"
    ],

    "architectures" : [
        "ALL"
    ],

    "localDefines" : {
    },

    "includes" : [
    ],

    "globals" : [
        "byte bufferSubID_$ADDON_NAME = 0",
        "GPIOBuffer *buffer_$ADDON_NAME = NULL"
    ],

    "functions" : [
        {
            "header" : "void initBuffer_$ADDON_NAME()",
            "file" : "initBuffer.cpp"
        }
    ],

    "sketchCalls" : {
        "setup" : "initBuffer_$ADDON_NAME()"
    },

    "requires" : [
        {
            "label" : "Samples count",
            "type" : "uint16_t",
            "defName" : "BUFFER_SAMPLES_COUNT_$ADDON_NAME"
        },

        {
            "label" : "Samples interval",
            "type" : "uint32_t",
            "defName" : "BUFFER_SAMPLES_US_$ADDON_NAME",
            "udm" : "us"
        },

        {
            "label" : "Pin Mode",
            "type" : "GPIOMODES",
            "defName" : "BUFFERPINMODE_$ADDON_NAME",

            "conditions" : {
                "INPUT" : {
                    "requires" : [
                        {
                            "label" : "Pin type",
                            "type" : "GPIOTYPES",
                            "defName" : "BUFFERPINTYPE_$ADDON_NAME",
                            "mode" : "INPUT",

                            "conditions" : {
                                "T_DGT" : {},
                                "T_ADC" : {}
                            }
                        }
                    ]
                },

                "OUTPUT" : {
                    "requires" : [
                        {
                            "label" : "Pin type",
                            "type" : "GPIOTYPES",
                            "defName" : "BUFFERPINTYPE_$ADDON_NAME",
                            "mode" : "OUTPUT",

                            "conditions" : {
                                "T_DGT" : {},
                                "T_PWM" : {},
                                "T_DAC" : {}
                            }
                        }
                    ]
                }
            }
        },

        {
            "label" : "Select buffering-pin to use",
            "type" : "GPIO",
            "defName" : "DATAPIN_$ADDON_NAME",
            "mode" : "#BUFFERPINMODE_$ADDON_NAME",
            "feature" : "#BUFFERPINTYPE_$ADDON_NAME"
        }
    ],

    "satFlows" : [
        {
            "NAME" : "BUFFER_$ADDON_NAME",
            "FLOW_T" : "BUFFER",
            "MODE_T" : "#BUFFERPINMODE_$ADDON_NAME"
        }
    ]
}
